************* Module movie
C:  5, 0: Trailing whitespace (trailing-whitespace)


Report
======
4 statements analysed.

Statistics by type
------------------

+---------+-------+-----------+-----------+------------+---------+
|type     |number |old number |difference |%documented |%badname |
+=========+=======+===========+===========+============+=========+
|module   |2      |2          |=          |100.00      |0.00     |
+---------+-------+-----------+-----------+------------+---------+
|class    |1      |1          |=          |100.00      |0.00     |
+---------+-------+-----------+-----------+------------+---------+
|method   |1      |1          |=          |100.00      |0.00     |
+---------+-------+-----------+-----------+------------+---------+
|function |0      |0          |=          |0           |0        |
+---------+-------+-----------+-----------+------------+---------+



Raw metrics
-----------

+----------+-------+------+---------+-----------+
|type      |number |%     |previous |difference |
+==========+=======+======+=========+===========+
|code      |5      |50.00 |5        |=          |
+----------+-------+------+---------+-----------+
|docstring |2      |20.00 |2        |=          |
+----------+-------+------+---------+-----------+
|comment   |0      |0.00  |0        |=          |
+----------+-------+------+---------+-----------+
|empty     |3      |30.00 |3        |=          |
+----------+-------+------+---------+-----------+



Duplication
-----------

+-------------------------+------+---------+-----------+
|                         |now   |previous |difference |
+=========================+======+=========+===========+
|nb duplicated lines      |0     |0        |=          |
+-------------------------+------+---------+-----------+
|percent duplicated lines |0.000 |0.000    |=          |
+-------------------------+------+---------+-----------+



Messages by category
--------------------

+-----------+-------+---------+-----------+
|type       |number |previous |difference |
+===========+=======+=========+===========+
|convention |1      |1        |=          |
+-----------+-------+---------+-----------+
|refactor   |0      |0        |=          |
+-----------+-------+---------+-----------+
|warning    |0      |0        |=          |
+-----------+-------+---------+-----------+
|error      |0      |0        |=          |
+-----------+-------+---------+-----------+



% errors / warnings by module
-----------------------------

+-------+------+--------+---------+-----------+
|module |error |warning |refactor |convention |
+=======+======+========+=========+===========+
|movie  |0.00  |0.00    |0.00     |100.00     |
+-------+------+--------+---------+-----------+



Messages
--------

+--------------------+------------+
|message id          |occurrences |
+====================+============+
|trailing-whitespace |1           |
+--------------------+------------+



Global evaluation
-----------------
Your code has been rated at 7.50/10 (previous run: 7.50/10, +0.00)

